G04 start of page 9 for group -4078 idx -4078 *
G04 Title: (unknown), bottomsilk *
G04 Creator: pcb 4.0.2 *
G04 CreationDate: Thu Jun 21 19:57:25 2018 UTC *
G04 For: thequux *
G04 Format: Gerber/RS-274X *
G04 PCB-Dimensions (mil): 3165.35 3937.01 *
G04 PCB-Coordinate-Origin: lower left *
%MOIN*%
%FSLAX25Y25*%
%LNBOTTOMSILK*%
%ADD39C,0.0100*%
G54D39*X0Y0D02*X314961D01*
Y393701D01*
X0D01*
Y0D01*
X238220Y260843D02*X238720Y261343D01*
X236720Y260843D02*X238220D01*
X236220Y261343D02*X236720Y260843D01*
X236220Y261343D02*Y262343D01*
X236720Y262843D01*
X238220D01*
X238720Y263343D01*
Y264343D01*
X238220Y264843D02*X238720Y264343D01*
X236720Y264843D02*X238220D01*
X236220Y264343D02*X236720Y264843D01*
X239920Y261343D02*X240420Y260843D01*
X241920D01*
X242420Y261343D01*
Y262343D01*
X239920Y264843D02*X242420Y262343D01*
X239920Y264843D02*X242420D01*
X238220Y339583D02*X238720Y340083D01*
X236720Y339583D02*X238220D01*
X236220Y340083D02*X236720Y339583D01*
X236220Y340083D02*Y341083D01*
X236720Y341583D01*
X238220D01*
X238720Y342083D01*
Y343083D01*
X238220Y343583D02*X238720Y343083D01*
X236720Y343583D02*X238220D01*
X236220Y343083D02*X236720Y343583D01*
X239920Y340383D02*X240720Y339583D01*
Y343583D01*
X239920D02*X241420D01*
X238220Y103362D02*X238720Y103862D01*
X236720Y103362D02*X238220D01*
X236220Y103862D02*X236720Y103362D01*
X236220Y103862D02*Y104862D01*
X236720Y105362D01*
X238220D01*
X238720Y105862D01*
Y106862D01*
X238220Y107362D02*X238720Y106862D01*
X236720Y107362D02*X238220D01*
X236220Y106862D02*X236720Y107362D01*
X239920Y105862D02*X241920Y103362D01*
X239920Y105862D02*X242420D01*
X241920Y103362D02*Y107362D01*
X238220Y182102D02*X238720Y182602D01*
X236720Y182102D02*X238220D01*
X236220Y182602D02*X236720Y182102D01*
X236220Y182602D02*Y183602D01*
X236720Y184102D01*
X238220D01*
X238720Y184602D01*
Y185602D01*
X238220Y186102D02*X238720Y185602D01*
X236720Y186102D02*X238220D01*
X236220Y185602D02*X236720Y186102D01*
X239920Y182602D02*X240420Y182102D01*
X241420D01*
X241920Y182602D01*
X241420Y186102D02*X241920Y185602D01*
X240420Y186102D02*X241420D01*
X239920Y185602D02*X240420Y186102D01*
Y183902D02*X241420D01*
X241920Y182602D02*Y183402D01*
Y184402D02*Y185602D01*
Y184402D02*X241420Y183902D01*
X241920Y183402D02*X241420Y183902D01*
X80740Y260843D02*X81240Y261343D01*
X79240Y260843D02*X80740D01*
X78740Y261343D02*X79240Y260843D01*
X78740Y261343D02*Y262343D01*
X79240Y262843D01*
X80740D01*
X81240Y263343D01*
Y264343D01*
X80740Y264843D02*X81240Y264343D01*
X79240Y264843D02*X80740D01*
X78740Y264343D02*X79240Y264843D01*
X82940D02*X84940Y260843D01*
X82440D02*X84940D01*
X80740Y182102D02*X81240Y182602D01*
X79240Y182102D02*X80740D01*
X78740Y182602D02*X79240Y182102D01*
X78740Y182602D02*Y183602D01*
X79240Y184102D01*
X80740D01*
X81240Y184602D01*
Y185602D01*
X80740Y186102D02*X81240Y185602D01*
X79240Y186102D02*X80740D01*
X78740Y185602D02*X79240Y186102D01*
X83940Y182102D02*X84440Y182602D01*
X82940Y182102D02*X83940D01*
X82440Y182602D02*X82940Y182102D01*
X82440Y182602D02*Y185602D01*
X82940Y186102D01*
X83940Y183902D02*X84440Y184402D01*
X82440Y183902D02*X83940D01*
X82940Y186102D02*X83940D01*
X84440Y185602D01*
Y184402D02*Y185602D01*
X80740Y103362D02*X81240Y103862D01*
X79240Y103362D02*X80740D01*
X78740Y103862D02*X79240Y103362D01*
X78740Y103862D02*Y104862D01*
X79240Y105362D01*
X80740D01*
X81240Y105862D01*
Y106862D01*
X80740Y107362D02*X81240Y106862D01*
X79240Y107362D02*X80740D01*
X78740Y106862D02*X79240Y107362D01*
X82440Y103362D02*X84440D01*
X82440D02*Y105362D01*
X82940Y104862D01*
X83940D01*
X84440Y105362D01*
Y106862D01*
X83940Y107362D02*X84440Y106862D01*
X82940Y107362D02*X83940D01*
X82440Y106862D02*X82940Y107362D01*
X80740Y339583D02*X81240Y340083D01*
X79240Y339583D02*X80740D01*
X78740Y340083D02*X79240Y339583D01*
X78740Y340083D02*Y341083D01*
X79240Y341583D01*
X80740D01*
X81240Y342083D01*
Y343083D01*
X80740Y343583D02*X81240Y343083D01*
X79240Y343583D02*X80740D01*
X78740Y343083D02*X79240Y343583D01*
X82440Y343083D02*X82940Y343583D01*
X82440Y342283D02*Y343083D01*
Y342283D02*X83140Y341583D01*
X83740D01*
X84440Y342283D01*
Y343083D01*
X83940Y343583D02*X84440Y343083D01*
X82940Y343583D02*X83940D01*
X82440Y340883D02*X83140Y341583D01*
X82440Y340083D02*Y340883D01*
Y340083D02*X82940Y339583D01*
X83940D01*
X84440Y340083D01*
Y340883D01*
X83740Y341583D02*X84440Y340883D01*
M02*
