v 20130925 2
C 40000 40000 0 0 0 title-B.sym
C 46900 45800 1 0 0 TJA1040T.sym
{
T 47300 47800 5 10 0 0 0 0 1
device=TJA1040T
T 47300 48000 5 10 0 0 0 0 1
footprint=SO8
T 48700 47600 5 10 1 1 0 6 1
refdes=U4
}
N 47000 46700 46300 46700 4
{
T 46200 46700 5 10 1 1 0 6 1
netname=CANRX
}
N 47000 47100 46300 47100 4
{
T 46200 47100 5 10 1 1 0 6 1
netname=CANTX
}
N 49200 47600 50400 47600 4
N 49200 45800 50400 45800 4
N 49000 46700 49700 46700 4
C 49800 45800 1 90 0 resistor-2.sym
{
T 49450 46200 5 10 0 0 90 0 1
device=RESISTOR
T 49800 45800 5 10 0 1 0 0 1
footprint=0603
T 49500 46000 5 10 1 1 90 0 1
refdes=R2
T 50000 46000 5 10 1 1 90 0 1
value=60Ω
}
C 49800 46700 1 90 0 resistor-2.sym
{
T 49450 47100 5 10 0 0 90 0 1
device=RESISTOR
T 49800 46700 5 10 0 1 0 0 1
footprint=0603
T 49500 46900 5 10 1 1 90 0 1
refdes=R1
T 50000 46900 5 10 1 1 90 0 1
value=60Ω
}
N 49000 47100 49200 47100 4
N 49200 47100 49200 47600 4
N 49000 46300 49200 46300 4
N 49200 46300 49200 45800 4
C 43500 46200 1 0 0 5V-plus-1.sym
C 43600 44400 1 0 0 gnd-1.sym
N 43700 44700 43700 45000 4
N 43700 45900 43700 46200 4
C 43900 45000 1 90 0 capacitor-1.sym
{
T 43200 45200 5 10 0 0 90 0 1
device=CAPACITOR
T 43000 45200 5 10 0 0 90 0 1
symversion=0.1
T 43900 45000 5 10 0 1 0 0 1
footprint=0603
T 43600 45600 5 10 1 1 90 0 1
refdes=C4
T 43900 45500 5 10 1 1 90 0 1
value=0.1µF
}
C 54700 45200 1 0 1 rj45-1.sym
{
T 54700 48100 5 10 0 0 0 6 1
device=RJ45
T 54700 47900 5 10 0 0 0 6 1
footprint=RJ45
T 54700 47100 5 10 1 1 0 6 1
refdes=CONN1
}
N 53800 46400 53400 46400 4
N 51800 43300 51800 45800 4
N 51800 45800 53800 45800 4
N 53800 46200 53600 46200 4
N 52300 46000 52300 43300 4
N 53800 46000 52300 46000 4
C 51700 43000 1 0 0 gnd-1.sym
C 52500 43300 1 180 0 12V-plus-1.sym
N 53800 46600 50400 46600 4
{
T 50900 46500 5 10 1 1 180 6 1
netname=CANL
}
N 53800 46800 50400 46800 4
{
T 50900 46900 5 10 1 1 0 0 1
netname=CANH
}
C 54700 42900 1 0 1 rj45-1.sym
{
T 54700 45800 5 10 0 0 0 6 1
device=RJ45
T 54700 45600 5 10 0 0 0 6 1
footprint=RJ45
T 54700 44800 5 10 1 1 0 6 1
refdes=CONN2
}
N 53800 44100 53400 44100 4
N 51800 43500 53800 43500 4
N 53800 43900 53600 43900 4
N 53800 43700 52300 43700 4
N 53800 44300 52600 44300 4
N 52600 44300 52600 46600 4
N 53800 44500 52800 44500 4
N 52800 44500 52800 46800 4
N 50400 45800 50400 46600 4
N 50400 46800 50400 47600 4
N 53800 45400 53200 45400 4
N 53200 45400 53200 43100 4
N 53200 43100 53800 43100 4
N 53800 43300 53000 43300 4
N 53000 43300 53000 45600 4
N 53000 45600 53800 45600 4
N 53600 43900 53600 43700 4
N 53400 44100 53400 43500 4
N 53600 46200 53600 46000 4
N 53400 46400 53400 45800 4
N 47000 46300 46300 46300 4
{
T 46200 46300 5 10 1 1 0 6 1
netname=CANSTB
}
