v 20130925 2
C 40000 40000 0 0 0 title-B.sym
N 42900 49300 42300 49300 4
{
T 42200 49300 5 10 1 1 0 6 1
netname=LED_MOSI
}
N 42900 48400 42300 48400 4
{
T 42200 48400 5 10 1 1 0 6 1
netname=LED_SCLK
}
C 45900 48300 1 0 0 apa102.sym
{
T 47100 49600 5 10 1 1 0 6 1
refdes=LED1
T 46300 49600 5 10 0 0 0 0 1
device=APA102
T 46300 49800 5 10 0 0 0 0 1
footprint=LED_5050_6
}
N 44600 49000 46000 49000 4
N 44600 48700 46000 48700 4
N 47600 49000 47400 49000 4
N 47600 48700 47400 48700 4
N 49200 49000 49000 49000 4
N 49200 48700 49000 48700 4
N 50800 49000 50600 49000 4
N 50800 48700 50600 48700 4
N 45700 46800 46000 46800 4
N 45400 46500 46000 46500 4
N 47600 46800 47400 46800 4
N 47600 46500 47400 46500 4
N 49200 46800 49000 46800 4
N 49200 46500 49000 46500 4
N 50800 46800 50600 46800 4
N 50800 46500 50600 46500 4
N 52200 48700 52500 48700 4
N 52500 48100 52500 48700 4
N 45400 48100 52500 48100 4
N 52200 49000 52800 49000 4
N 52800 49000 52800 47800 4
N 52800 47800 45700 47800 4
N 45700 46800 45700 47800 4
N 45400 48100 45400 46500 4
N 44600 48700 44600 48400 4
N 44600 48400 44000 48400 4
N 44600 49000 44600 49300 4
N 44600 49300 44000 49300 4
T 41500 47700 9 10 1 0 0 0 1
These inverters are actually level shifters
C 47500 48300 1 0 0 apa102.sym
{
T 48700 49600 5 10 1 1 0 6 1
refdes=LED2
T 47900 49600 5 10 0 0 0 0 1
device=APA102
T 47900 49800 5 10 0 0 0 0 1
footprint=LED_5050_6
}
C 47500 46100 1 0 0 apa102.sym
{
T 48700 47400 5 10 1 1 0 6 1
refdes=LED6
T 47900 47400 5 10 0 0 0 0 1
device=APA102
T 47900 47600 5 10 0 0 0 0 1
footprint=LED_5050_6
}
C 50700 48300 1 0 0 apa102.sym
{
T 51900 49600 5 10 1 1 0 6 1
refdes=LED4
T 51100 49600 5 10 0 0 0 0 1
device=APA102
T 51100 49800 5 10 0 0 0 0 1
footprint=LED_5050_6
}
C 45900 46100 1 0 0 apa102.sym
{
T 47100 47400 5 10 1 1 0 6 1
refdes=LED5
T 46300 47400 5 10 0 0 0 0 1
device=APA102
T 46300 47600 5 10 0 0 0 0 1
footprint=LED_5050_6
}
C 49100 48300 1 0 0 apa102.sym
{
T 50300 49600 5 10 1 1 0 6 1
refdes=LED3
T 49500 49600 5 10 0 0 0 0 1
device=APA102
T 49500 49800 5 10 0 0 0 0 1
footprint=LED_5050_6
}
C 49100 46100 1 0 0 apa102.sym
{
T 50300 47400 5 10 1 1 0 6 1
refdes=LED7
T 49500 47400 5 10 0 0 0 0 1
device=APA102
T 49500 47600 5 10 0 0 0 0 1
footprint=LED_5050_6
}
C 50700 46100 1 0 0 apa102.sym
{
T 51900 47400 5 10 1 1 0 6 1
refdes=LED8
T 51100 47400 5 10 0 0 0 0 1
device=APA102
T 51100 47600 5 10 0 0 0 0 1
footprint=LED_5050_6
}
C 42900 48800 1 0 0 7404-1.sym
{
T 43500 49700 5 10 0 0 0 0 1
device=74HCT04
T 43200 49700 5 10 1 1 0 0 1
refdes=U5
T 43500 52300 5 10 0 0 0 0 1
footprint=SO14
T 44700 49300 5 10 0 1 0 0 1
net=Vcc:
T 43400 49300 5 10 0 1 0 0 1
net=+5V:14
T 42900 48800 5 10 0 0 0 0 1
slot=4
}
C 52200 46700 1 0 0 nc-right-1.sym
{
T 52300 47200 5 10 0 0 0 0 1
value=NoConnection
T 52300 47400 5 10 0 0 0 0 1
device=DRC_Directive
}
C 52200 46400 1 0 0 nc-right-1.sym
{
T 52300 46900 5 10 0 0 0 0 1
value=NoConnection
T 52300 47100 5 10 0 0 0 0 1
device=DRC_Directive
}
C 42900 47900 1 0 0 7404-1.sym
{
T 43500 48800 5 10 0 0 0 0 1
device=74HCT04
T 43200 48800 5 10 1 1 0 0 1
refdes=U5
T 43500 51400 5 10 0 0 0 0 1
footprint=SO14
T 44700 48400 5 10 0 1 0 0 1
net=Vcc:
T 43400 48400 5 10 0 1 0 0 1
net=+5V:14
T 42900 47900 5 10 0 0 0 0 1
slot=5
}
C 43900 42700 1 0 0 nc-right-1.sym
{
T 44000 43200 5 10 0 0 0 0 1
value=NoConnection
T 44000 43400 5 10 0 0 0 0 1
device=DRC_Directive
}
C 43900 45000 1 0 0 nc-right-1.sym
{
T 44000 45500 5 10 0 0 0 0 1
value=NoConnection
T 44000 45700 5 10 0 0 0 0 1
device=DRC_Directive
}
C 43900 43900 1 0 0 nc-right-1.sym
{
T 44000 44400 5 10 0 0 0 0 1
value=NoConnection
T 44000 44600 5 10 0 0 0 0 1
device=DRC_Directive
}
C 42800 43500 1 0 0 7404-1.sym
{
T 43400 44400 5 10 0 0 0 0 1
device=74HCT04
T 43400 47000 5 10 0 0 0 0 1
footprint=SO14
T 44600 44000 5 10 0 1 0 0 1
net=Vcc:
T 43300 44000 5 10 0 1 0 0 1
net=+5V:14
T 42800 43500 5 10 0 0 0 0 1
slot=2
T 43100 44400 5 10 1 1 0 0 1
refdes=U5
}
C 42800 44600 1 0 0 7404-1.sym
{
T 43400 45500 5 10 0 0 0 0 1
device=74HCT04
T 43400 48100 5 10 0 0 0 0 1
footprint=SO14
T 44600 45100 5 10 0 1 0 0 1
net=Vcc:
T 43300 45100 5 10 0 1 0 0 1
net=+5V:14
T 42800 44600 5 10 0 0 0 0 1
slot=1
T 43100 45500 5 10 1 1 0 0 1
refdes=U5
}
C 42800 42300 1 0 0 7404-1.sym
{
T 43400 43200 5 10 0 0 0 0 1
device=74HCT04
T 43400 45800 5 10 0 0 0 0 1
footprint=SO14
T 44600 42800 5 10 0 1 0 0 1
net=Vcc:
T 43300 42800 5 10 0 1 0 0 1
net=+5V:14
T 42800 42300 5 10 0 0 0 0 1
slot=6
T 43100 43200 5 10 1 1 0 0 1
refdes=U5
}
N 42800 45100 42300 45100 4
N 42300 45100 42300 42500 4
N 42800 42800 42300 42800 4
N 42800 44000 42300 44000 4
C 42200 42200 1 0 0 gnd-1.sym
