v 20130925 2
C 40000 40000 0 0 0 title-B.sym
N 44000 45800 43300 45800 4
{
T 43200 45800 5 10 1 1 0 6 1
netname=CANRX
}
N 44000 45400 43300 45400 4
{
T 43200 45400 5 10 1 1 0 6 1
netname=CANTX
}
N 44000 46600 43300 46600 4
{
T 43200 46600 5 10 1 1 0 6 1
netname=AUDIO+
}
N 47800 44600 48500 44600 4
{
T 48600 44600 5 10 1 1 0 0 1
netname=AUDIO-
}
N 47800 46600 48500 46600 4
{
T 48600 46600 5 10 1 1 0 0 1
netname=SCL
}
N 47800 46200 48500 46200 4
{
T 48600 46200 5 10 1 1 0 0 1
netname=SDA
}
N 44000 49400 43300 49400 4
{
T 43200 49400 5 10 1 1 0 6 1
netname=USART1_TX
}
N 44000 49000 43300 49000 4
{
T 43200 49000 5 10 1 1 0 6 1
netname=USART1_RX
}
N 44000 48600 41600 48600 4
{
T 43200 48600 5 10 1 1 0 6 1
netname=USART1_CK
}
C 43900 40900 1 0 0 stm32f103c8t6.sym
{
T 44300 50900 5 10 0 0 0 0 1
device=STM32F103C8T6
T 44300 51100 5 10 0 0 0 0 1
footprint=LQFP48_7
T 47500 50700 5 10 1 1 0 6 1
refdes=U1
}
N 41900 45200 42900 45200 4
N 42900 45200 42900 44600 4
N 41900 44600 42700 44600 4
N 42700 44600 42700 45000 4
N 42200 45500 41900 45500 4
N 41900 44300 43200 44300 4
N 43200 43400 43200 44300 4
N 41900 44900 42200 44900 4
N 42200 44900 42200 43600 4
C 42100 43300 1 0 0 gnd-1.sym
C 42000 45500 1 0 0 3.3V-plus-1.sym
C 40400 43600 1 0 0 swd.sym
{
T 40800 46100 5 10 0 0 0 0 1
device=SWD
T 40800 46300 5 10 0 0 0 0 1
footprint=JUMPER6
T 41600 45900 5 10 1 1 0 6 1
refdes=J3
}
N 43200 43400 44000 43400 4
{
T 43300 43400 5 10 1 1 0 0 1
netname=\_RST\_
}
N 42900 44600 44000 44600 4
N 44000 45000 42700 45000 4
T 49300 41900 9 10 1 0 0 0 2
LEDS: TIM3
Audio: TIM1.2
N 42300 41800 42300 43000 4
N 43000 41800 43000 42600 4
N 43000 40900 43000 40500 4
N 42300 40900 42300 40500 4
C 42900 40200 1 0 0 gnd-1.sym
C 42200 40200 1 0 0 gnd-1.sym
C 43400 41800 1 0 0 3.3V-plus-1.sym
C 43500 41100 1 0 0 gnd-1.sym
N 43600 41400 44000 41400 4
N 44000 41800 43600 41800 4
N 44000 42600 43000 42600 4
N 44000 43000 42300 43000 4
C 42500 40900 1 90 0 capacitor-1.sym
{
T 42000 41100 5 10 1 1 90 0 1
refdes=C5
T 42000 41500 5 10 1 1 90 0 1
value=22nF
T 41800 41100 5 10 0 0 90 0 1
device=CAPACITOR
T 41600 41100 5 10 0 0 90 0 1
symversion=0.1
T 42500 40900 5 10 0 1 0 0 1
footprint=0603
}
C 43200 40900 1 90 0 capacitor-1.sym
{
T 42700 41100 5 10 1 1 90 0 1
refdes=C6
T 42700 41500 5 10 1 1 90 0 1
value=22nF
T 42500 41100 5 10 0 0 90 0 1
device=CAPACITOR
T 42300 41100 5 10 0 0 90 0 1
symversion=0.1
T 43200 40900 5 10 0 1 0 0 1
footprint=0603
}
C 42300 42300 1 0 0 crystal-1.sym
{
T 42500 42600 5 10 1 1 0 0 1
refdes=X1
T 42400 42000 5 10 1 1 0 0 1
value=8MHz
T 42500 42800 5 10 0 0 0 0 1
device=CRYSTAL
T 42500 43000 5 10 0 0 0 0 1
symversion=0.1
T 42300 42300 5 10 0 1 0 0 1
footprint=HC49
}
C 48400 43300 1 90 0 gnd-1.sym
C 48400 49300 1 90 0 gnd-1.sym
N 48100 49400 47800 49400 4
N 48100 43400 47800 43400 4
N 44000 50200 43300 50200 4
{
T 43200 50200 5 10 1 1 0 6 1
netname=WKUP
}
C 52800 50000 1 0 0 3.3V-plus-1.sym
C 52600 48700 1 90 0 resistor-2.sym
{
T 52250 49100 5 10 0 0 90 0 1
device=RESISTOR
T 52300 48900 5 10 1 1 90 0 1
refdes=R3
T 52300 49300 5 10 1 1 90 0 1
value=10K
T 52600 48700 5 10 0 1 0 0 1
footprint=0603
}
N 52500 48700 52500 47600 4
N 55500 47600 56200 47600 4
{
T 56300 47600 5 10 1 1 180 6 1
netname=WKUP
}
C 50000 46500 1 0 0 connector5-1.sym
{
T 51800 48000 5 10 0 0 0 0 1
device=CONNECTOR_5
T 50100 48200 5 10 1 1 0 0 1
refdes=CONN3
T 50000 46500 5 10 0 1 0 0 1
footprint=FIVE_FINGER_DISCOUNT
}
C 51800 48200 1 0 0 3.3V-plus-1.sym
N 52000 48200 52000 47900 4
N 52000 47900 51700 47900 4
C 51900 46100 1 0 0 gnd-1.sym
N 52000 46400 52000 46700 4
N 52000 46700 51700 46700 4
T 50700 47900 9 10 1 0 0 0 1
3v3
T 50700 47600 9 10 1 0 0 0 1
\_WKUP\_
T 50700 47300 9 10 1 0 0 0 1
SDA
T 50700 47000 9 10 1 0 0 0 1
SCL
T 50700 46700 9 10 1 0 0 0 1
GND
N 54400 47600 51700 47600 4
N 53000 49600 53000 50000 4
C 53100 48700 1 90 0 resistor-2.sym
{
T 52750 49100 5 10 0 0 90 0 1
device=RESISTOR
T 52800 48900 5 10 1 1 90 0 1
refdes=R4
T 52800 49300 5 10 1 1 90 0 1
value=10K
T 53100 48700 5 10 0 1 0 0 1
footprint=0603
}
C 53700 48700 1 90 0 resistor-2.sym
{
T 53350 49100 5 10 0 0 90 0 1
device=RESISTOR
T 53400 48900 5 10 1 1 90 0 1
refdes=R5
T 53400 49300 5 10 1 1 90 0 1
value=10K
T 53700 48700 5 10 0 1 0 0 1
footprint=0603
}
N 51700 47300 54000 47300 4
{
T 54100 47300 5 10 1 1 0 0 1
netname=SDA
}
N 54000 47000 51700 47000 4
{
T 54100 47000 5 10 1 1 0 0 1
netname=SCL
}
N 53000 48700 53000 47300 4
N 53600 48700 53600 47000 4
N 52500 49800 53000 49800 4
N 53600 49800 53600 49600 4
N 52500 49800 52500 49600 4
N 44000 48200 43300 48200 4
{
T 43200 48200 5 10 1 1 0 6 1
netname=LED_SCLK
}
N 44000 47400 43300 47400 4
{
T 43200 47400 5 10 1 1 0 6 1
netname=LED_MOSI
}
C 47800 48500 1 0 0 nc-right-1.sym
{
T 47900 49000 5 10 0 0 0 0 1
value=NoConnection
T 47900 49200 5 10 0 0 0 0 1
device=DRC_Directive
}
C 47800 48100 1 0 0 nc-right-1.sym
{
T 47900 48600 5 10 0 0 0 0 1
value=NoConnection
T 47900 48800 5 10 0 0 0 0 1
device=DRC_Directive
}
C 47800 47700 1 0 0 nc-right-1.sym
{
T 47900 48200 5 10 0 0 0 0 1
value=NoConnection
T 47900 48400 5 10 0 0 0 0 1
device=DRC_Directive
}
C 47800 47300 1 0 0 nc-right-1.sym
{
T 47900 47800 5 10 0 0 0 0 1
value=NoConnection
T 47900 48000 5 10 0 0 0 0 1
device=DRC_Directive
}
C 47800 46900 1 0 0 nc-right-1.sym
{
T 47900 47400 5 10 0 0 0 0 1
value=NoConnection
T 47900 47600 5 10 0 0 0 0 1
device=DRC_Directive
}
C 47800 45700 1 0 0 nc-right-1.sym
{
T 47900 46200 5 10 0 0 0 0 1
value=NoConnection
T 47900 46400 5 10 0 0 0 0 1
device=DRC_Directive
}
C 47800 45300 1 0 0 nc-right-1.sym
{
T 47900 45800 5 10 0 0 0 0 1
value=NoConnection
T 47900 46000 5 10 0 0 0 0 1
device=DRC_Directive
}
C 47800 44900 1 0 0 nc-right-1.sym
{
T 47900 45400 5 10 0 0 0 0 1
value=NoConnection
T 47900 45600 5 10 0 0 0 0 1
device=DRC_Directive
}
C 47800 42900 1 0 0 nc-right-1.sym
{
T 47900 43400 5 10 0 0 0 0 1
value=NoConnection
T 47900 43600 5 10 0 0 0 0 1
device=DRC_Directive
}
C 47800 42500 1 0 0 nc-right-1.sym
{
T 47900 43000 5 10 0 0 0 0 1
value=NoConnection
T 47900 43200 5 10 0 0 0 0 1
device=DRC_Directive
}
C 47800 42100 1 0 0 nc-right-1.sym
{
T 47900 42600 5 10 0 0 0 0 1
value=NoConnection
T 47900 42800 5 10 0 0 0 0 1
device=DRC_Directive
}
C 47800 50100 1 0 0 nc-right-1.sym
{
T 47900 50600 5 10 0 0 0 0 1
value=NoConnection
T 47900 50800 5 10 0 0 0 0 1
device=DRC_Directive
}
C 47800 49700 1 0 0 nc-right-1.sym
{
T 47900 50200 5 10 0 0 0 0 1
value=NoConnection
T 47900 50400 5 10 0 0 0 0 1
device=DRC_Directive
}
C 47800 44100 1 0 0 nc-right-1.sym
{
T 47900 44600 5 10 0 0 0 0 1
value=NoConnection
T 47900 44800 5 10 0 0 0 0 1
device=DRC_Directive
}
C 44000 47900 1 180 0 nc-right-1.sym
{
T 43900 47400 5 10 0 0 180 0 1
value=NoConnection
T 43900 47200 5 10 0 0 180 0 1
device=DRC_Directive
}
C 44000 47100 1 180 0 nc-right-1.sym
{
T 43900 46600 5 10 0 0 180 0 1
value=NoConnection
T 43900 46400 5 10 0 0 180 0 1
device=DRC_Directive
}
C 44000 46300 1 180 0 nc-right-1.sym
{
T 43900 45800 5 10 0 0 180 0 1
value=NoConnection
T 43900 45600 5 10 0 0 180 0 1
device=DRC_Directive
}
C 44000 44300 1 180 0 nc-right-1.sym
{
T 43900 43800 5 10 0 0 180 0 1
value=NoConnection
T 43900 43600 5 10 0 0 180 0 1
device=DRC_Directive
}
C 47700 41100 1 0 0 gnd-1.sym
N 47800 49000 48500 49000 4
{
T 48600 49000 5 10 1 1 0 0 1
netname=SWO
}
N 41900 44000 42400 44000 4
{
T 42500 44000 5 10 1 1 0 0 1
netname=SWO
}
C 54400 47100 1 0 0 7404-1.sym
{
T 55000 48000 5 10 0 0 0 0 1
device=74HCT04
T 54700 48000 5 10 1 1 0 0 1
refdes=U5
T 55000 50600 5 10 0 0 0 0 1
footprint=SO14
T 56200 47600 5 10 0 1 0 0 1
net=Vcc:
T 54900 47600 5 10 0 1 0 0 1
net=+5V:14
T 54400 47100 5 10 0 0 0 0 1
slot=3
}
N 54000 43500 53300 43500 4
{
T 53200 43500 5 10 1 1 0 6 1
netname=USART1_TX
}
N 54000 43200 53300 43200 4
{
T 53200 43200 5 10 1 1 0 6 1
netname=USART1_RX
}
N 54000 45100 53300 45100 4
{
T 53200 45100 5 10 1 1 0 6 1
netname=AUDIO+
}
N 54000 44800 53300 44800 4
{
T 53200 44800 5 10 1 1 0 6 1
netname=AUDIO-
}
N 44000 49800 43300 49800 4
{
T 43200 49800 5 10 1 1 0 6 1
netname=CANSTB
}
C 55700 44600 1 0 1 connector2-1.sym
{
T 55500 45600 5 10 0 0 0 6 1
device=CONNECTOR_2
T 55700 45400 5 10 1 1 0 6 1
refdes=CONN5
T 55700 44600 5 10 0 1 0 0 1
footprint=JUMPER2
}
C 55700 42700 1 0 1 connector4-1.sym
{
T 53900 43600 5 10 0 0 0 6 1
device=CONNECTOR_4
T 55700 44100 5 10 1 1 0 6 1
refdes=CONN4
T 55700 42700 5 10 0 1 0 0 1
footprint=JUMPER4
}
N 53700 44000 53700 43800 4
N 53700 43800 54000 43800 4
C 53600 42400 1 0 0 gnd-1.sym
N 53700 42700 53700 42900 4
N 53700 42900 54000 42900 4
C 53500 44000 1 0 0 5V-plus-1.sym
C 41600 48700 1 180 0 nc-right-1.sym
{
T 41500 48200 5 10 0 0 180 0 1
value=NoConnection
T 41500 48000 5 10 0 0 180 0 1
device=DRC_Directive
}
C 50100 45400 1 0 0 3.3V-plus-1.sym
C 51100 42800 1 0 0 gnd-1.sym
C 50300 44800 1 0 0 capacitor-1.sym
{
T 50500 45500 5 10 0 0 0 0 1
device=CAPACITOR
T 50500 45700 5 10 0 0 0 0 1
symversion=0.1
T 50300 44800 5 10 0 2 0 0 1
footprint=0603
T 50400 45100 5 10 1 1 0 0 1
refdes=C7
T 50900 45100 5 10 1 1 0 0 1
value=0.1µF
}
C 50300 44300 1 0 0 capacitor-1.sym
{
T 50500 45000 5 10 0 0 0 0 1
device=CAPACITOR
T 50500 45200 5 10 0 0 0 0 1
symversion=0.1
T 50300 44300 5 10 0 2 0 0 1
footprint=0603
T 50400 44600 5 10 1 1 0 0 1
refdes=C8
T 50900 44600 5 10 1 1 0 0 1
value=0.1µF
}
C 50300 43800 1 0 0 capacitor-1.sym
{
T 50500 44500 5 10 0 0 0 0 1
device=CAPACITOR
T 50500 44700 5 10 0 0 0 0 1
symversion=0.1
T 50300 43800 5 10 0 2 0 0 1
footprint=0603
T 50400 44100 5 10 1 1 0 0 1
refdes=C9
T 50900 44100 5 10 1 1 0 0 1
value=0.1µF
}
C 50300 43300 1 0 0 capacitor-1.sym
{
T 50500 44000 5 10 0 0 0 0 1
device=CAPACITOR
T 50500 44200 5 10 0 0 0 0 1
symversion=0.1
T 50300 43300 5 10 0 2 0 0 1
footprint=0603
T 50400 43600 5 10 1 1 0 0 1
refdes=C10
T 50900 43600 5 10 1 1 0 0 1
value=0.1µF
}
N 51200 45000 51200 43100 4
N 50300 43500 50300 45400 4
N 53000 49800 53600 49800 4
