v 20130925 2
C 47700 46400 1 0 0 dcdc.sym
{
T 48700 48000 5 10 1 1 0 6 1
refdes=U2
T 48100 48000 5 10 0 0 0 0 1
device=dcdc_module
T 47700 46400 5 10 0 1 0 0 1
footprint=DCDC_1
}
C 47000 47300 1 0 0 12V-plus-1.sym
C 47100 46600 1 0 0 gnd-1.sym
N 47200 47300 47800 47300 4
N 47200 46900 47800 46900 4
C 49500 47300 1 0 0 5V-plus-1.sym
N 49200 47300 50200 47300 4
C 49900 45900 1 0 0 gnd-1.sym
T 47800 46300 9 10 1 0 0 0 1
Set to 5V output
C 50100 46500 1 0 0 mic5365.sym
{
T 51300 48000 5 10 1 1 0 6 1
refdes=U3
T 50500 48000 5 10 0 0 0 0 1
device=MIC5365
T 50500 48200 5 10 0 0 0 0 1
footprint=SC70_5
}
N 49500 46200 50700 46200 4
N 49500 46900 49200 46900 4
C 51700 47400 1 0 0 3.3V-plus-1.sym
N 51600 47300 51900 47300 4
N 51900 47300 51900 47400 4
N 49500 46200 49500 46900 4
N 51100 46600 51100 46400 4
N 51100 46400 50000 46400 4
N 50000 46400 50000 47300 4
N 50700 46200 50700 46600 4
C 47400 44800 1 0 0 12V-plus-1.sym
C 48000 44800 1 0 0 5V-plus-1.sym
C 48600 44800 1 0 0 3.3V-plus-1.sym
C 49000 43500 1 90 0 capacitor-1.sym
{
T 48300 43700 5 10 0 0 90 0 1
device=CAPACITOR
T 48700 44100 5 10 1 1 90 0 1
refdes=C3
T 48100 43700 5 10 0 0 90 0 1
symversion=0.1
T 49000 44000 5 10 1 1 90 0 1
value=1µF
T 49000 43500 5 10 0 1 0 0 1
footprint=0603
}
C 48100 42900 1 0 0 gnd-1.sym
N 47600 43500 48800 43500 4
N 48200 43500 48200 43200 4
N 48800 44400 48800 44800 4
N 48200 44400 48200 44800 4
N 47600 44400 47600 44800 4
C 48400 43500 1 90 0 capacitor-1.sym
{
T 47700 43700 5 10 0 0 90 0 1
device=CAPACITOR
T 48100 44100 5 10 1 1 90 0 1
refdes=C2
T 47500 43700 5 10 0 0 90 0 1
symversion=0.1
T 48400 44000 5 10 1 1 90 0 1
value=1µF
T 48400 43500 5 10 0 1 0 0 1
footprint=0603
}
C 47800 43500 1 90 0 capacitor-1.sym
{
T 47100 43700 5 10 0 0 90 0 1
device=CAPACITOR
T 47500 44100 5 10 1 1 90 0 1
refdes=C1
T 46900 43700 5 10 0 0 90 0 1
symversion=0.1
T 47800 44000 5 10 1 1 90 0 1
value=1µF
T 47800 43500 5 10 0 1 0 0 1
footprint=0603
}
C 41500 40500 0 0 0 title-A3.sym
