v 20130925 2
C 40000 40000 0 0 0 title-B.sym
C 50600 45100 1 0 0 captouch.sym
{
T 50600 46700 5 10 0 0 0 0 1
device=CAPTOUCH
T 51400 45300 5 10 1 1 0 0 1
refdes=S5
T 50600 45100 5 10 0 1 0 0 1
footprint=CAPTOUCH_PIN
}
C 50600 44700 1 0 0 captouch.sym
{
T 50600 46300 5 10 0 0 0 0 1
device=CAPTOUCH
T 51400 44900 5 10 1 1 0 0 1
refdes=S6
T 50600 44700 5 10 0 1 0 0 1
footprint=CAPTOUCH_PIN
}
C 50600 44300 1 0 0 captouch.sym
{
T 50600 45900 5 10 0 0 0 0 1
device=CAPTOUCH
T 51400 44500 5 10 1 1 0 0 1
refdes=S7
T 50600 44300 5 10 0 1 0 0 1
footprint=CAPTOUCH_PIN
}
C 50600 43900 1 0 0 captouch.sym
{
T 50600 45500 5 10 0 0 0 0 1
device=CAPTOUCH
T 51400 44100 5 10 1 1 0 0 1
refdes=S8
T 50600 43900 5 10 0 1 0 0 1
footprint=CAPTOUCH_PIN
}
C 50600 46700 1 0 0 captouch.sym
{
T 50600 48300 5 10 0 0 0 0 1
device=CAPTOUCH
T 51400 46900 5 10 1 1 0 0 1
refdes=S1
T 50600 46700 5 10 0 1 0 0 1
footprint=CAPTOUCH_PIN
}
C 50600 46300 1 0 0 captouch.sym
{
T 50600 47900 5 10 0 0 0 0 1
device=CAPTOUCH
T 51400 46500 5 10 1 1 0 0 1
refdes=S2
T 50600 46300 5 10 0 1 0 0 1
footprint=CAPTOUCH_PIN
}
C 50600 45900 1 0 0 captouch.sym
{
T 50600 47500 5 10 0 0 0 0 1
device=CAPTOUCH
T 51400 46100 5 10 1 1 0 0 1
refdes=S3
T 50600 45900 5 10 0 1 0 0 1
footprint=CAPTOUCH_PIN
}
C 50600 45500 1 0 0 captouch.sym
{
T 50600 47100 5 10 0 0 0 0 1
device=CAPTOUCH
T 51400 45700 5 10 1 1 0 0 1
refdes=S4
T 50600 45500 5 10 0 1 0 0 1
footprint=CAPTOUCH_PIN
}
C 47400 43600 1 0 0 cap1208.sym
{
T 49200 47400 5 10 1 1 0 6 1
refdes=U1
T 47800 47600 5 10 0 0 0 0 1
device=CAP1208
T 47800 47800 5 10 0 0 0 0 1
footprint=SO14
}
N 49500 46900 50600 46900 4
N 49500 46500 50600 46500 4
N 49500 46100 50600 46100 4
N 49500 45700 50600 45700 4
N 49500 45300 50600 45300 4
N 49500 44900 50600 44900 4
N 49500 44500 50600 44500 4
N 49500 44100 50600 44100 4
T 47900 42800 9 10 1 0 0 0 3
Address is 
0x28 for CAP1208-1 
0x29 for CAP1208-2
C 44900 44300 1 0 0 gnd-1.sym
N 47500 46500 45500 46500 4
N 43600 46100 47500 46100 4
N 44900 46900 47500 46900 4
C 41900 45600 1 0 0 connector5-1.sym
{
T 43700 47100 5 10 0 0 0 0 1
device=CONNECTOR_5
T 42000 47300 5 10 1 1 0 0 1
refdes=CONN1
T 41900 45600 5 10 0 1 0 0 1
footprint=FIVE_FINGER_DISCOUNT
}
N 45500 46500 45500 46400 4
N 45500 46400 43600 46400 4
N 44900 46900 44900 46700 4
N 44900 46700 43600 46700 4
C 44000 47300 1 0 0 3.3V-plus-1.sym
N 44200 47300 44200 47000 4
N 44200 47000 43600 47000 4
C 44100 45200 1 0 0 gnd-1.sym
N 44200 45500 44200 45800 4
N 44200 45800 43600 45800 4
T 42600 47000 9 10 1 0 0 0 1
3v3
T 42600 46700 9 10 1 0 0 0 1
\_WKUP\_
T 42600 46400 9 10 1 0 0 0 1
SDA
T 42600 46100 9 10 1 0 0 0 1
SCL
T 42600 45800 9 10 1 0 0 0 1
GND
C 44800 45500 1 0 0 3.3V-plus-1.sym
C 46200 45500 1 270 0 capacitor-1.sym
{
T 46900 45300 5 10 0 0 270 0 1
device=CAPACITOR
T 46500 45200 5 10 1 1 0 0 1
refdes=C1
T 47100 45300 5 10 0 0 270 0 1
symversion=0.1
T 46500 44800 5 10 1 1 0 0 1
value=0.1µF
T 46200 45500 5 10 0 1 0 0 1
footprint=0603
}
N 47500 45300 47100 45300 4
N 47100 45300 47100 45500 4
N 47100 45500 45000 45500 4
N 47500 44900 47100 44900 4
N 47100 44900 47100 44600 4
N 47100 44600 45000 44600 4
C 45300 45500 1 270 0 capacitor-1.sym
{
T 46000 45300 5 10 0 0 270 0 1
device=CAPACITOR
T 45600 45200 5 10 1 1 0 0 1
refdes=C2
T 46200 45300 5 10 0 0 270 0 1
symversion=0.1
T 45600 44800 5 10 1 1 0 0 1
value=1µF
T 45300 45500 5 10 0 1 0 0 1
footprint=0603
}
